Lab1/CodingSpace/simulation/qsim/LAB1.msim.vcd
$comment
	File created using the following command:
		vcd file LAB1.msim.vcd -direction
$end
$date
	Wed Sep 22 22:19:02 2021
$end
$version
	ModelSim Version 10.5b
$end
$timescale
	1ps
$end

$scope module LAB1_vlg_vec_tst $end
$var reg 1 ! A $end
$var reg 1 " B $end
$var reg 1 # C $end
$var wire 1 $ Z $end

$scope module i1 $end
$var wire 1 % gnd $end
$var wire 1 & vcc $end
$var wire 1 ' unknown $end
$var tri1 1 ( devclrn $end
$var tri1 1 ) devpor $end
$var tri1 1 * devoe $end
$var wire 1 + Z~output_o $end
$var wire 1 , C~input_o $end
$var wire 1 - B~input_o $end
$var wire 1 . A~input_o $end
$var wire 1 / inst3|4~0_combout $end
$upscope $end
$upscope $end
$enddefinitions $end
#0
$dumpvars
0!
0"
0#
0$
0%
1&
x'
1(
1)
1*
0+
0,
0-
0.
0/
$end
#50000
1"
1-
#100000
1#
0"
1,
0-
1/
1+
1$
#150000
1"
1-
0/
0+
0$
#200000
1!
0#
0"
1.
0,
0-
#250000
1"
1-
1/
1+
1$
#300000
1#
0"
1,
0-
#350000
1"
1-
#400000
0!
0#
0"
0.
0,
0-
0/
0+
0$
#450000
1"
1-
#500000
1#
0"
1,
0-
1/
1+
1$
#550000
1"
1-
0/
0+
0$
#600000
1!
0#
0"
1.
0,
0-
#650000
1"
1-
1/
1+
1$
#700000
1#
0"
1,
0-
#750000
1"
1-
#800000
0!
0#
0"
0.
0,
0-
0/
0+
0$
#850000
1"
1-
#900000
1#
0"
1,
0-
1/
1+
1$
#950000
1"
1-
0/
0+
0$
