Lab3/Lab3/simulation/qsim/Lab3.msim.vcd
$comment
	File created using the following command:
		vcd file Lab3.msim.vcd -direction
$end
$date
	Thu Oct 14 19:48:54 2021
$end
$version
	ModelSim Version 10.5b
$end
$timescale
	1ps
$end

$scope module Lab3_vlg_vec_tst $end
$var reg 1 ! CLK $end
$var reg 1 " D0 $end
$var reg 1 # D1 $end
$var reg 1 $ D2 $end
$var reg 1 % D3 $end
$var reg 1 & EXECUTE $end
$var reg 1 ' F0 $end
$var reg 1 ( F1 $end
$var reg 1 ) F2 $end
$var reg 1 * LOAD_A $end
$var reg 1 + LOAD_B $end
$var reg 1 , R0 $end
$var reg 1 - R1 $end
$var wire 1 . RA0 $end
$var wire 1 / RA1 $end
$var wire 1 0 RA2 $end
$var wire 1 1 RA3 $end
$var wire 1 2 RB0 $end
$var wire 1 3 RB1 $end
$var wire 1 4 RB2 $end
$var wire 1 5 RB3 $end

$scope module i1 $end
$var wire 1 6 gnd $end
$var wire 1 7 vcc $end
$var wire 1 8 unknown $end
$var tri1 1 9 devclrn $end
$var tri1 1 : devpor $end
$var tri1 1 ; devoe $end
$var wire 1 < RA0~output_o $end
$var wire 1 = RA1~output_o $end
$var wire 1 > RA2~output_o $end
$var wire 1 ? RA3~output_o $end
$var wire 1 @ RB0~output_o $end
$var wire 1 A RB1~output_o $end
$var wire 1 B RB2~output_o $end
$var wire 1 C RB3~output_o $end
$var wire 1 D CLK~input_o $end
$var wire 1 E CLK~inputclkctrl_outclk $end
$var wire 1 F LOAD_A~input_o $end
$var wire 1 G D0~input_o $end
$var wire 1 H inst11|38~0_combout $end
$var wire 1 I D1~input_o $end
$var wire 1 J inst11|39~0_combout $end
$var wire 1 K D2~input_o $end
$var wire 1 L inst11|40~0_combout $end
$var wire 1 M R1~input_o $end
$var wire 1 N EXECUTE~input_o $end
$var wire 1 O inst|15~0_combout $end
$var wire 1 P inst|15~q $end
$var wire 1 Q inst6~combout $end
$var wire 1 R inst2|9~q $end
$var wire 1 S inst|3~0_combout $end
$var wire 1 T inst|3~q $end
$var wire 1 U inst9~combout $end
$var wire 1 V D3~input_o $end
$var wire 1 W R0~input_o $end
$var wire 1 X F2~input_o $end
$var wire 1 Y F0~input_o $end
$var wire 1 Z F1~input_o $end
$var wire 1 [ inst20|9~0_combout $end
$var wire 1 \ inst12|37~0_combout $end
$var wire 1 ] inst12|37~1_combout $end
$var wire 1 ^ inst12|37~2_combout $end
$var wire 1 _ LOAD_B~input_o $end
$var wire 1 ` inst12|34~1_combout $end
$var wire 1 a inst12|34~2_combout $end
$var wire 1 b inst12|41~q $end
$var wire 1 c inst12|36~0_combout $end
$var wire 1 d inst12|40~q $end
$var wire 1 e inst12|35~0_combout $end
$var wire 1 f inst12|39~q $end
$var wire 1 g inst12|34~0_combout $end
$var wire 1 h inst12|38~q $end
$var wire 1 i inst11|37~0_combout $end
$var wire 1 j inst11|41~0_combout $end
$var wire 1 k inst11|37~1_combout $end
$var wire 1 l inst11|41~q $end
$var wire 1 m inst11|40~q $end
$var wire 1 n inst11|39~q $end
$var wire 1 o inst11|38~q $end
$upscope $end
$upscope $end
$enddefinitions $end
#0
$dumpvars
0!
0"
0#
0$
0%
0&
0'
0(
0)
0*
0+
0,
0-
0.
0/
00
01
02
03
04
05
06
17
x8
19
1:
1;
0<
0=
0>
0?
0@
0A
0B
0C
0D
0E
0F
0G
0H
0I
0J
0K
0L
0M
0N
0O
0P
0Q
0R
0S
0T
0U
0V
0W
0X
0Y
0Z
0[
0\
0]
0^
0_
0`
0a
0b
0c
0d
0e
0f
0g
0h
0i
0j
0k
0l
0m
0n
0o
$end
#5000
1!
1D
1E
#10000
1#
1"
0!
1I
1G
0D
0E
1e
1g
#15000
1!
1D
1E
#20000
0!
0D
0E
#25000
1!
1D
1E
#30000
1*
0!
1F
0D
0E
1J
1H
#35000
1!
1D
1E
1o
1n
1=
1<
1.
1/
1j
#40000
0!
0D
0E
#45000
1!
1D
1E
#50000
0#
0"
0*
0!
0I
0G
0F
0D
0E
0e
0g
#55000
1!
1D
1E
#60000
0!
0D
0E
#65000
1!
1D
1E
#70000
1%
1$
0!
1V
1K
0D
0E
1^
1c
#75000
1!
1D
1E
#80000
0!
0D
0E
#85000
1!
1D
1E
#90000
1*
0!
1F
0D
0E
1k
1L
0J
0H
#95000
1!
1D
1E
0o
0n
1m
1l
1?
1>
0=
0<
0.
0/
10
11
0j
#100000
0!
0D
0E
#105000
1!
1D
1E
#110000
0%
0$
0*
0!
0V
0K
0F
0D
0E
0^
0c
#115000
1!
1D
1E
#120000
0!
0D
0E
#125000
1!
1D
1E
#130000
0!
0D
0E
#135000
1!
1D
1E
#140000
0!
0D
0E
#145000
1!
1D
1E
#150000
1*
0!
1F
0D
0E
0k
0L
#155000
1!
1D
1E
0m
0l
0?
0>
00
01
#160000
0!
0D
0E
#165000
1!
1D
1E
#170000
0*
0!
0F
0D
0E
#175000
1!
1D
1E
#180000
0!
0D
0E
#185000
1!
1D
1E
#190000
1#
1"
0!
1I
1G
0D
0E
1e
1g
#195000
1!
1D
1E
#200000
0!
0D
0E
#205000
1!
1D
1E
#210000
1+
0!
1_
0D
0E
1`
1a
#215000
1!
1D
1E
1h
1f
1A
1@
1]
12
13
#220000
0!
0D
0E
#225000
1!
1D
1E
#230000
0#
0"
0+
0!
0I
0G
0_
0D
0E
0`
0e
0g
0a
#235000
1!
1D
1E
#240000
0!
0D
0E
#245000
1!
1D
1E
#250000
1%
1$
0!
1V
1K
0D
0E
1^
1c
#255000
1!
1D
1E
#260000
0!
0D
0E
#265000
1!
1D
1E
#270000
1+
0!
1_
0D
0E
1`
1a
#275000
1!
1D
1E
0h
0f
1d
1b
1C
1B
0A
0@
0]
02
03
14
15
#280000
0!
0D
0E
#285000
1!
1D
1E
#290000
0%
0$
0+
0!
0V
0K
0_
0D
0E
0`
0^
0c
0a
#295000
1!
1D
1E
#300000
0!
0D
0E
#305000
1!
1D
1E
#310000
0!
0D
0E
#315000
1!
1D
1E
#320000
0!
0D
0E
#325000
1!
1D
1E
#330000
1+
0!
1_
0D
0E
1`
1a
#335000
1!
1D
1E
0d
0b
0C
0B
04
05
#340000
0!
0D
0E
#345000
1!
1D
1E
#350000
0+
0!
0_
0D
0E
0`
0a
#355000
1!
1D
1E
#360000
0!
0D
0E
#365000
1!
1D
1E
#370000
0!
0D
0E
#375000
1!
1D
1E
#380000
0!
0D
0E
#385000
1!
1D
1E
#390000
0!
0D
0E
#395000
1!
1D
1E
#400000
1#
1%
1$
0!
1I
1V
1K
0D
0E
1e
1^
1c
#405000
1!
1D
1E
#410000
0!
0D
0E
#415000
1!
1D
1E
#420000
1*
0!
1F
0D
0E
1k
1L
1J
#425000
1!
1D
1E
1n
1m
1l
1?
1>
1=
1/
10
11
#430000
0!
0D
0E
#435000
1!
1D
1E
#440000
1"
0%
0*
0!
1G
0V
0F
0D
0E
1g
0^
#445000
1!
1D
1E
#450000
0!
0D
0E
#455000
1!
1D
1E
#460000
1+
0!
1_
0D
0E
1`
1a
#465000
1!
1D
1E
1h
1f
1d
1B
1A
1@
1]
12
13
14
#470000
0!
0D
0E
#475000
1!
1D
1E
#480000
0#
0$
0"
0+
0!
0I
0K
0G
0_
0D
0E
0`
0e
0c
0g
0a
#485000
1!
1D
1E
#490000
0!
0D
0E
#495000
1!
1D
1E
#500000
1&
0!
1N
0D
0E
1a
1U
1S
1Q
1g
1e
1^
#505000
1!
1D
1E
1T
1R
1o
0l
0d
1b
1C
0B
0?
1<
1`
0a
1[
0k
1.
01
04
15
0S
1O
1j
1H
0e
1c
1a
1i
1\
#510000
0!
0D
0E
#515000
1!
1D
1E
0T
1P
0m
1l
0f
1d
1B
0A
1?
0>
0`
1k
00
11
03
14
1S
0L
0g
1e
#520000
0!
0D
0E
#525000
1!
1D
1E
1T
0n
1m
0h
1f
1A
0@
1>
0=
1`
0]
0[
0/
10
02
13
0S
0O
0J
1L
1g
0i
0\
0^
#530000
0!
0D
0E
#535000
1!
1D
1E
0T
0P
0o
1n
1h
0b
0C
1@
1=
0<
0`
0U
1]
0.
1/
12
05
0j
0H
1J
0c
0a
0g
0e
#540000
0!
0D
0E
#545000
1!
1D
1E
#550000
0!
0D
0E
#555000
1!
1D
1E
#560000
0!
0D
0E
#565000
1!
1D
1E
#570000
0!
0D
0E
#575000
1!
1D
1E
#580000
0!
0D
0E
#585000
1!
1D
1E
#590000
0!
0D
0E
#595000
1!
1D
1E
#600000
1,
1%
1#
1$
0&
0!
1W
1V
1I
1K
0N
0D
0E
1i
0]
1^
1e
1c
0Q
#605000
1!
1D
1E
0R
#610000
0!
0D
0E
#615000
1!
1D
1E
#620000
1*
0!
1F
0D
0E
#625000
1!
1D
1E
#630000
0!
0D
0E
#635000
1!
1D
1E
#640000
1"
0%
0*
0!
1G
0V
0F
0D
0E
1g
0^
#645000
1!
1D
1E
#650000
0!
0D
0E
#655000
1!
1D
1E
#660000
1+
0!
1_
0D
0E
1`
1a
#665000
1!
1D
1E
#670000
0!
0D
0E
#675000
1!
1D
1E
#680000
0#
0$
0"
0+
0!
0I
0K
0G
0_
0D
0E
0`
0e
0c
0g
0a
#685000
1!
1D
1E
#690000
0!
0D
0E
#695000
1!
1D
1E
#700000
1&
0!
1N
0D
0E
1a
1U
1S
1Q
1g
1e
#705000
1!
1D
1E
1T
1R
1o
0l
0d
0B
0?
1<
1`
0a
1[
0k
1.
01
04
0S
1O
1j
1H
0e
1a
1\
1]
1^
#710000
0!
0D
0E
#715000
1!
1D
1E
0T
1P
0m
1l
0f
1b
1C
0A
1?
0>
0`
1k
00
11
03
15
1S
0L
0g
1c
#720000
0!
0D
0E
#725000
1!
1D
1E
1T
0n
1m
0h
1d
1B
0@
1>
0=
1`
0i
0[
0/
10
02
14
0S
0O
0J
1L
1e
0\
0]
0^
#730000
0!
0D
0E
#735000
1!
1D
1E
0T
0P
0o
1n
1f
0b
0C
1A
1=
0<
0`
0U
0.
1/
13
05
0j
0H
1J
1g
0c
0a
0g
0e
#740000
0!
0D
0E
#745000
1!
1D
1E
#750000
0!
0D
0E
#755000
1!
1D
1E
#760000
0!
0D
0E
#765000
1!
1D
1E
#770000
0!
0D
0E
#775000
1!
1D
1E
#780000
0!
0D
0E
#785000
1!
1D
1E
#790000
0!
0D
0E
#795000
1!
1D
1E
#800000
1-
0,
1%
1#
1$
0&
0!
1M
0W
1V
1I
1K
0N
0D
0E
1^
1e
1c
0Q
#805000
1!
1D
1E
0R
#810000
0!
0D
0E
#815000
1!
1D
1E
#820000
1*
0!
1F
0D
0E
#825000
1!
1D
1E
#830000
0!
0D
0E
#835000
1!
1D
1E
#840000
1"
0%
0*
0!
1G
0V
0F
0D
0E
1g
0^
#845000
1!
1D
1E
#850000
0!
0D
0E
#855000
1!
1D
1E
#860000
1+
0!
1_
0D
0E
1`
1a
#865000
1!
1D
1E
1h
1@
1]
12
#870000
0!
0D
0E
#875000
1!
1D
1E
#880000
0#
0$
0"
0+
0!
0I
0K
0G
0_
0D
0E
0`
0e
0c
0g
0a
#885000
1!
1D
1E
#890000
0!
0D
0E
#895000
1!
1D
1E
#900000
1&
0!
1N
0D
0E
1a
1U
1S
1Q
1g
1e
1^
#905000
1!
1D
1E
1T
1R
1o
0l
0d
1b
1C
0B
0?
1<
1`
0a
1\
1[
0k
1.
01
04
15
0S
1O
1H
0e
1c
1a
1i
1j
#910000
0!
0D
0E
#915000
1!
1D
1E
0T
1P
0m
1l
0f
1d
1B
0A
1?
0>
0`
1k
00
11
03
14
1S
0L
0g
1e
#920000
0!
0D
0E
#925000
1!
1D
1E
1T
0n
1m
0h
1f
1A
0@
1>
0=
1`
0]
0[
0/
10
02
13
0S
0O
0J
1L
1g
0i
0^
0j
#930000
0!
0D
0E
#935000
1!
1D
1E
0T
0P
0o
1n
0l
1h
0b
0C
1@
0?
1=
0<
0`
0U
0\
0k
1]
0.
1/
01
12
05
0H
1J
0c
0a
0g
0e
#940000
0!
0D
0E
#945000
1!
1D
1E
#950000
0!
0D
0E
#955000
1!
1D
1E
#960000
0!
0D
0E
#965000
1!
1D
1E
#970000
0!
0D
0E
#975000
1!
1D
1E
#980000
0!
0D
0E
#985000
1!
1D
1E
#990000
0!
0D
0E
#995000
1!
1D
1E
#1000000
1,
1%
1#
1$
0&
0!
1W
1V
1I
1K
0N
0D
0E
1i
0]
1^
1e
1c
0Q
1j
#1005000
1!
1D
1E
0R
#1010000
0!
0D
0E
#1015000
1!
1D
1E
#1020000
1*
0!
1F
0D
0E
1k
#1025000
1!
1D
1E
1l
1?
11
#1030000
0!
0D
0E
#1035000
1!
1D
1E
#1040000
1"
0%
0*
0!
1G
0V
0F
0D
0E
1g
0^
#1045000
1!
1D
1E
#1050000
0!
0D
0E
#1055000
1!
1D
1E
#1060000
1+
0!
1_
0D
0E
1`
1a
#1065000
1!
1D
1E
#1070000
0!
0D
0E
#1075000
1!
1D
1E
#1080000
0#
0$
0"
0+
0!
0I
0K
0G
0_
0D
0E
0`
0e
0c
0g
0a
#1085000
1!
1D
1E
#1090000
0!
0D
0E
#1095000
1!
1D
1E
#1100000
1&
0!
1N
0D
0E
1a
1U
1S
1Q
1g
1e
#1105000
1!
1D
1E
1T
1R
1o
0d
0B
1<
1`
0a
1\
1[
1.
04
0S
1O
1H
0e
1a
1]
1^
#1110000
0!
0D
0E
#1115000
1!
1D
1E
0T
1P
0f
1b
1C
0A
0`
03
15
1S
0g
1c
#1120000
0!
0D
0E
#1125000
1!
1D
1E
1T
0h
1d
1B
0@
1`
0i
0[
02
14
0S
0O
1e
0j
#1130000
0!
0D
0E
#1135000
1!
1D
1E
0T
0P
0l
1f
1A
0?
0`
0U
0k
01
13
1g
0a
0g
0e
0c
0^
#1140000
0!
0D
0E
#1145000
1!
1D
1E
#1150000
0!
0D
0E
#1155000
1!
1D
1E
#1160000
0!
0D
0E
#1165000
1!
1D
1E
#1170000
0!
0D
0E
#1175000
1!
1D
1E
#1180000
0!
0D
0E
#1185000
1!
1D
1E
#1190000
0!
0D
0E
#1195000
1!
1D
1E
#1200000
1'
0,
1%
1#
0&
0!
1Y
0W
1V
1I
0N
0D
0E
1[
0]
1^
1e
0Q
1i
1j
#1205000
1!
1D
1E
0R
#1210000
0!
0D
0E
#1215000
1!
1D
1E
#1220000
1*
0!
1F
0D
0E
1k
0L
0H
#1225000
1!
1D
1E
0o
0m
1l
1?
0>
0<
0\
0[
0.
00
11
0i
0j
#1230000
0!
0D
0E
#1235000
1!
1D
1E
#1240000
1$
1"
0%
0*
0!
1K
1G
0V
0F
0D
0E
1c
1g
0^
#1245000
1!
1D
1E
#1250000
0!
0D
0E
#1255000
1!
1D
1E
#1260000
1+
0!
1_
0D
0E
1`
1a
#1265000
1!
1D
1E
1h
0b
0C
1@
1]
1[
12
05
1i
1j
#1270000
0!
0D
0E
#1275000
1!
1D
1E
#1280000
0#
0$
0"
0+
0!
0I
0K
0G
0_
0D
0E
0`
0e
0c
0g
0a
#1285000
1!
1D
1E
#1290000
0!
0D
0E
#1295000
1!
1D
1E
#1300000
1&
0!
1N
0D
0E
1a
1U
1S
1Q
1g
1e
1^
#1305000
1!
1D
1E
1T
1R
1o
0n
1m
0d
1b
1C
0B
1>
0=
1<
1`
0a
1\
1.
0/
10
04
15
0S
1O
1H
0J
1L
0e
1c
1a
#1310000
0!
0D
0E
#1315000
1!
1D
1E
0T
1P
0o
1n
0f
1d
1B
0A
1=
0<
0`
0\
0.
1/
03
14
1S
0H
1J
0g
1e
#1320000
0!
0D
0E
#1325000
1!
1D
1E
1T
1o
0h
1f
1A
0@
1<
1`
1\
0]
1.
02
13
0S
0O
1H
1g
0^
#1330000
0!
0D
0E
#1335000
1!
1D
1E
0T
0P
1h
0b
0C
1@
0`
0U
1]
12
05
0c
0a
0g
0e
#1340000
0!
0D
0E
#1345000
1!
1D
1E
#1350000
0!
0D
0E
#1355000
1!
1D
1E
#1360000
0!
0D
0E
#1365000
1!
1D
1E
#1370000
0!
0D
0E
#1375000
1!
1D
1E
#1380000
0!
0D
0E
#1385000
1!
1D
1E
#1390000
0!
0D
0E
#1395000
1!
1D
1E
#1400000
1(
0'
1%
1#
0&
0!
1Z
0Y
1V
1I
0N
0D
0E
0[
1^
1e
0Q
0i
0j
#1405000
1!
1D
1E
0R
#1410000
0!
0D
0E
#1415000
1!
1D
1E
#1420000
1*
0!
1F
0D
0E
0L
0H
#1425000
1!
1D
1E
0o
0m
0>
0<
0\
1[
0.
00
1i
1j
#1430000
0!
0D
0E
#1435000
1!
1D
1E
#1440000
1$
1"
0%
0*
0!
1K
1G
0V
0F
0D
0E
1c
1g
0^
#1445000
1!
1D
1E
#1450000
0!
0D
0E
#1455000
1!
1D
1E
#1460000
1+
0!
1_
0D
0E
1`
1a
#1465000
1!
1D
1E
#1470000
0!
0D
0E
#1475000
1!
1D
1E
#1480000
0#
0$
0"
0+
0!
0I
0K
0G
0_
0D
0E
0`
0e
0c
0g
0a
#1485000
1!
1D
1E
#1490000
0!
0D
0E
#1495000
1!
1D
1E
#1500000
1&
0!
1N
0D
0E
1a
1U
1S
1Q
1g
1e
1^
#1505000
1!
1D
1E
1T
1R
1o
0n
1m
0d
1b
1C
0B
1>
0=
1<
1`
0a
1\
0[
1.
0/
10
04
15
0S
1O
1H
0J
1L
0e
1c
1a
0i
0j
#1510000
0!
0D
0E
#1515000
1!
1D
1E
0T
1P
0o
1n
0l
0f
1d
1B
0A
0?
1=
0<
0`
0\
1[
0k
0.
1/
01
03
14
1S
0H
1J
0g
1e
1i
1j
#1520000
0!
0D
0E
#1525000
1!
1D
1E
1T
1o
0m
1l
0h
1f
1A
0@
1?
0>
1<
1`
1\
1k
0]
1.
00
11
02
13
0S
0O
1H
0L
1g
0^
#1530000
0!
0D
0E
#1535000
1!
1D
1E
0T
0P
0n
1m
1h
0b
0C
1@
1>
0=
0`
0U
1]
0[
0/
10
12
05
0J
1L
0c
0a
0i
0g
0e
0j
#1540000
0!
0D
0E
#1545000
1!
1D
1E
#1550000
0!
0D
0E
#1555000
1!
1D
1E
#1560000
0!
0D
0E
#1565000
1!
1D
1E
#1570000
0!
0D
0E
#1575000
1!
1D
1E
#1580000
0!
0D
0E
#1585000
1!
1D
1E
#1590000
0!
0D
0E
#1595000
1!
1D
1E
#1600000
1'
1%
1#
0&
0!
1Y
1V
1I
0N
0D
0E
1[
1^
1e
0Q
1i
1j
#1605000
1!
1D
1E
0R
#1610000
0!
0D
0E
#1615000
1!
1D
1E
#1620000
1*
0!
1F
0D
0E
0L
1J
0H
#1625000
1!
1D
1E
0o
1n
0m
0>
1=
0<
0\
0.
1/
00
#1630000
0!
0D
0E
#1635000
1!
1D
1E
#1640000
1$
1"
0%
0*
0!
1K
1G
0V
0F
0D
0E
1c
1g
0^
#1645000
1!
1D
1E
#1650000
0!
0D
0E
#1655000
1!
1D
1E
#1660000
1+
0!
1_
0D
0E
1`
1a
#1665000
1!
1D
1E
#1670000
0!
0D
0E
#1675000
1!
1D
1E
#1680000
0#
0$
0"
0+
0!
0I
0K
0G
0_
0D
0E
0`
0e
0c
0g
0a
#1685000
1!
1D
1E
#1690000
0!
0D
0E
#1695000
1!
1D
1E
#1700000
1&
0!
1N
0D
0E
1a
1U
1S
1Q
1g
1e
1^
#1705000
1!
1D
1E
1T
1R
1o
0n
1m
0d
1b
1C
0B
1>
0=
1<
1`
0a
1\
1.
0/
10
04
15
0S
1O
1H
0J
1L
0e
1c
1a
#1710000
0!
0D
0E
#1715000
1!
1D
1E
0T
1P
0o
1n
0f
1d
1B
0A
1=
0<
0`
0\
0.
1/
03
14
1S
0H
1J
0g
1e
#1720000
0!
0D
0E
#1725000
1!
1D
1E
1T
1o
0h
1f
1A
0@
1<
1`
1\
0]
1.
02
13
0S
0O
1H
1g
0^
#1730000
0!
0D
0E
#1735000
1!
1D
1E
0T
0P
1h
0b
0C
1@
0`
0U
1]
12
05
0c
0a
0g
0e
#1740000
0!
0D
0E
#1745000
1!
1D
1E
#1750000
0!
0D
0E
#1755000
1!
1D
1E
#1760000
0!
0D
0E
#1765000
1!
1D
1E
#1770000
0!
0D
0E
#1775000
1!
1D
1E
#1780000
0!
0D
0E
#1785000
1!
1D
1E
#1790000
0!
0D
0E
#1795000
1!
1D
1E
#1800000
1)
0(
0'
1%
1#
0&
0!
1X
0Z
0Y
1V
1I
0N
0D
0E
0i
1^
1e
0Q
0j
#1805000
1!
1D
1E
0R
#1810000
0!
0D
0E
#1815000
1!
1D
1E
#1820000
1*
0!
1F
0D
0E
0L
0H
#1825000
1!
1D
1E
0o
0m
0>
0<
0\
0[
0.
00
1i
1j
#1830000
0!
0D
0E
#1835000
1!
1D
1E
#1840000
1$
1"
0%
0*
0!
1K
1G
0V
0F
0D
0E
1c
1g
0^
#1845000
1!
1D
1E
#1850000
0!
0D
0E
#1855000
1!
1D
1E
#1860000
1+
0!
1_
0D
0E
1`
1a
#1865000
1!
1D
1E
#1870000
0!
0D
0E
#1875000
1!
1D
1E
#1880000
0#
0$
0"
0+
0!
0I
0K
0G
0_
0D
0E
0`
0e
0c
0g
0a
#1885000
1!
1D
1E
#1890000
0!
0D
0E
#1895000
1!
1D
1E
#1900000
1&
0!
1N
0D
0E
1a
1U
1S
1Q
1g
1e
1^
#1905000
1!
1D
1E
1T
1R
1o
0n
1m
0d
1b
1C
0B
1>
0=
1<
1`
0a
1\
1[
1.
0/
10
04
15
0S
1O
1H
0J
1L
0e
1c
1a
0i
0j
#1910000
0!
0D
0E
#1915000
1!
1D
1E
0T
1P
0o
1n
0l
0f
1d
1B
0A
0?
1=
0<
0`
0\
0[
0k
0.
1/
01
03
14
1S
0H
1J
0g
1e
1i
1j
#1920000
0!
0D
0E
#1925000
1!
1D
1E
1T
1o
0m
1l
0h
1f
1A
0@
1?
0>
1<
1`
1\
1k
0]
1.
00
11
02
13
0S
0O
1H
0L
1g
0^
#1930000
0!
0D
0E
#1935000
1!
1D
1E
0T
0P
0n
1m
1h
0b
0C
1@
1>
0=
0`
0U
1]
1[
0/
10
12
05
0J
1L
0c
0a
0i
0g
0e
0j
#1940000
0!
0D
0E
#1945000
1!
1D
1E
#1950000
0!
0D
0E
#1955000
1!
1D
1E
#1960000
0!
0D
0E
#1965000
1!
1D
1E
#1970000
0!
0D
0E
#1975000
1!
1D
1E
#1980000
0!
0D
0E
#1985000
1!
1D
1E
#1990000
0!
0D
0E
#1995000
1!
1D
1E
#2000000
1'
1%
1#
0&
0!
1Y
1V
1I
0N
0D
0E
1^
1e
0Q
#2005000
1!
1D
1E
0R
#2010000
0!
0D
0E
#2015000
1!
1D
1E
#2020000
1*
0!
1F
0D
0E
0L
1J
0H
#2025000
1!
1D
1E
0o
1n
0m
0>
1=
0<
0\
0.
1/
00
#2030000
0!
0D
0E
#2035000
1!
1D
1E
#2040000
1$
1"
0%
0*
0!
1K
1G
0V
0F
0D
0E
1c
1g
0^
#2045000
1!
1D
1E
#2050000
0!
0D
0E
#2055000
1!
1D
1E
#2060000
1+
0!
1_
0D
0E
1`
1a
#2065000
1!
1D
1E
#2070000
0!
0D
0E
#2075000
1!
1D
1E
#2080000
0#
0$
0"
0+
0!
0I
0K
0G
0_
0D
0E
0`
0e
0c
0g
0a
#2085000
1!
1D
1E
#2090000
0!
0D
0E
#2095000
1!
1D
1E
#2100000
0!
0D
0E
#2105000
1!
1D
1E
#2110000
1&
0!
1N
0D
0E
1a
1U
1S
1Q
1g
1e
1^
#2115000
1!
1D
1E
1T
1R
1o
0n
1m
0l
0d
1b
1C
0B
0?
1>
0=
1<
1`
0a
1\
0k
1.
0/
10
01
04
15
0S
1O
1H
0J
1L
0e
1c
1a
#2120000
0!
0D
0E
#2125000
1!
1D
1E
0T
1P
0o
1n
0m
0f
1d
1B
0A
0>
1=
0<
0`
0\
0.
1/
00
03
14
1S
0H
1J
0L
0g
1e
#2130000
0!
0D
0E
#2135000
1!
1D
1E
1T
1o
0n
0h
1f
1A
0@
0=
1<
1`
1\
0]
1.
0/
02
13
0S
0O
1H
0J
1g
0^
#2140000
0!
0D
0E
#2145000
1!
1D
1E
0T
0P
0o
1h
0b
0C
1@
0<
0`
0U
0\
1]
0.
12
05
0H
0c
0a
0g
0e
#2150000
0!
0D
0E
#2155000
1!
1D
1E
#2160000
0!
0D
0E
#2165000
1!
1D
1E
#2170000
0!
0D
0E
#2175000
1!
1D
1E
#2180000
0!
0D
0E
#2185000
1!
1D
1E
#2190000
0!
0D
0E
#2195000
1!
1D
1E
#2200000
1(
0'
1%
1#
0&
0!
1Z
0Y
1V
1I
0N
0D
0E
1^
1e
0Q
#2205000
1!
1D
1E
0R
#2210000
0!
0D
0E
#2215000
1!
1D
1E
#2220000
1*
0!
1F
0D
0E
1k
1J
#2225000
1!
1D
1E
1n
1l
1?
1=
1/
11
#2230000
0!
0D
0E
#2235000
1!
1D
1E
#2240000
1$
1"
0%
0*
0!
1K
1G
0V
0F
0D
0E
1c
1g
0^
#2245000
1!
1D
1E
#2250000
0!
0D
0E
#2255000
1!
1D
1E
#2260000
1+
0!
1_
0D
0E
1`
1a
#2265000
1!
1D
1E
#2270000
0!
0D
0E
#2275000
1!
1D
1E
#2280000
0#
0$
0"
0+
0!
0I
0K
0G
0_
0D
0E
0`
0e
0c
0g
0a
#2285000
1!
1D
1E
#2290000
0!
0D
0E
#2295000
1!
1D
1E
#2300000
1&
0!
1N
0D
0E
1a
1U
1S
1Q
1g
1e
1^
#2305000
1!
1D
1E
1T
1R
1o
0n
1m
0l
0d
1b
1C
0B
0?
1>
0=
1<
1`
0a
1\
0[
0k
1.
0/
10
01
04
15
0S
1O
1H
0J
1L
0e
1c
1a
1i
1j
#2310000
0!
0D
0E
#2315000
1!
1D
1E
0T
1P
0o
1n
0m
1l
0f
1d
1B
0A
1?
0>
1=
0<
0`
0\
1[
1k
0.
1/
00
11
03
14
1S
0H
1J
0L
0g
1e
0i
0j
#2320000
0!
0D
0E
#2325000
1!
1D
1E
1T
1o
0n
1m
0l
0h
1f
1A
0@
0?
1>
0=
1<
1`
1\
0k
0]
1.
0/
10
01
02
13
0S
0O
1H
0J
1L
1g
0^
#2330000
0!
0D
0E
#2335000
1!
1D
1E
0T
0P
0o
1n
0m
1h
0b
0C
1@
0>
1=
0<
0`
0U
0\
1]
0.
1/
00
12
05
0H
1J
0L
0c
0a
0g
0e
#2340000
0!
0D
0E
#2345000
1!
1D
1E
#2350000
0!
0D
0E
#2355000
1!
1D
1E
#2360000
0!
0D
0E
#2365000
1!
1D
1E
#2370000
0!
0D
0E
#2375000
1!
1D
1E
#2380000
0!
0D
0E
#2385000
1!
1D
1E
#2390000
0!
0D
0E
#2395000
1!
1D
1E
#2400000
1'
1%
1#
0&
0!
1Y
1V
1I
0N
0D
0E
1^
1e
0Q
#2405000
1!
1D
1E
0R
#2410000
0!
0D
0E
#2415000
1!
1D
1E
#2420000
1*
0!
1F
0D
0E
1k
#2425000
1!
1D
1E
1l
1?
11
#2430000
0!
0D
0E
#2435000
1!
1D
1E
#2440000
1$
1"
0%
0*
0!
1K
1G
0V
0F
0D
0E
1c
1g
0^
#2445000
1!
1D
1E
#2450000
0!
0D
0E
#2455000
1!
1D
1E
#2460000
1+
0!
1_
0D
0E
1`
1a
#2465000
1!
1D
1E
#2470000
0!
0D
0E
#2475000
1!
1D
1E
#2480000
0#
0$
0"
0+
0!
0I
0K
0G
0_
0D
0E
0`
0e
0c
0g
0a
#2485000
1!
1D
1E
#2490000
0!
0D
0E
#2495000
1!
1D
1E
#2500000
1&
0!
1N
0D
0E
1a
1U
1S
1Q
1g
1e
1^
#2505000
1!
1D
1E
1T
1R
1o
0n
1m
0l
0d
1b
1C
0B
0?
1>
0=
1<
1`
0a
1\
0k
1.
0/
10
01
04
15
0S
1O
1H
0J
1L
0e
1c
1a
#2510000
0!
0D
0E
#2515000
1!
1D
1E
0T
1P
0o
1n
0m
0f
1d
1B
0A
0>
1=
0<
0`
0\
0.
1/
00
03
14
1S
0H
1J
0L
0g
1e
#2520000
0!
0D
0E
#2525000
1!
1D
1E
1T
1o
0n
0h
1f
1A
0@
0=
1<
1`
1\
0]
1.
0/
02
13
0S
0O
1H
0J
1g
0^
#2530000
0!
0D
0E
#2535000
1!
1D
1E
0T
0P
0o
1h
0b
0C
1@
0<
0`
0U
0\
1]
0.
12
05
0H
0c
0a
0g
0e
#2540000
0!
0D
0E
#2545000
1!
1D
1E
#2550000
0!
0D
0E
#2555000
1!
1D
1E
#2560000
0!
0D
0E
#2565000
1!
1D
1E
#2570000
0!
0D
0E
#2575000
1!
1D
1E
#2580000
0!
0D
0E
#2585000
1!
1D
1E
#2590000
0!
0D
0E
#2595000
1!
1D
1E
#2599000
0)
0(
0'
0&
0X
0Z
0Y
0N
1i
0[
0Q
0i
1j
0j
#2600000
1%
1#
0!
1)
1(
1V
1I
0D
1X
1Z
0E
1i
1[
1^
1e
0i
1j
0j
#2605000
1!
1D
1E
0R
#2610000
0!
0D
0E
#2615000
1!
1D
1E
#2620000
1*
0!
1F
0D
0E
1k
1J
#2625000
1!
1D
1E
1n
1l
1?
1=
1/
11
#2630000
0!
0D
0E
#2635000
1!
1D
1E
#2640000
1$
1"
0%
0*
0!
1K
1G
0V
0F
0D
0E
1c
1g
0^
#2645000
1!
1D
1E
#2650000
0!
0D
0E
#2655000
1!
1D
1E
#2660000
1+
0!
1_
0D
0E
1`
1a
#2665000
1!
1D
1E
#2670000
0!
0D
0E
#2675000
1!
1D
1E
#2680000
0#
0$
0"
0+
0!
0I
0K
0G
0_
0D
0E
0`
0e
0c
0g
0a
#2685000
1!
1D
1E
#2690000
0!
0D
0E
#2695000
1!
1D
1E
